switching_data/Switching 20260625a/ALL0007/F0007CH2.CSV

Record Length,2.500000e+03,,  -0.000032000000,  10.20000,
Sample Interval,2.000000e-07,,  -0.000031800000,  10.20000,
Trigger Point,1.600000000000e+02,,  -0.000031600000,  10.20000,
,,,  -0.000031400000,  10.20000,
,,,  -0.000031200000,  10.20000,
,,,  -0.000031000000,  10.20000,
Source,CH2,,  -0.000030800000,  10.20000,
Vertical Units,V,,  -0.000030600000,  10.20000,
Vertical Scale,5.000000e+00,,  -0.000030400000,  10.20000,
Vertical Offset,0.000000e+00,,  -0.000030200000,  10.20000,
Horizontal Units,s,,  -0.000030000000,  10.20000,
Horizontal Scale,5.000000e-05,,  -0.000029800000,  10.20000,
Pt Fmt,Y,,  -0.000029600000,  10.20000,
Yzero,0.000000e+00,,  -0.000029400000,  10.20000,
Probe Atten,1.000000e+00,,  -0.000029200000,  10.20000,
Model Number,TBS1022,,  -0.000029000000,  10.20000,
Serial Number,C012858,,  -0.000028800000,  10.20000,
Firmware Version,FV:v26.01,,  -0.000028600000,  10.20000,
,,,-00.000028400000,  10.20000,
,,,-00.000028200000,  10.20000,
,,,-00.000028000000,  10.20000,
,,,-00.000027800000,  10.20000,
,,,-00.000027600000,  10.20000,
,,,-00.000027400000,  10.20000,
,,,-00.000027200000,  10.20000,
,,,-00.000027000000,  10.20000,
,,,-00.000026800000,  10.20000,
,,,-00.000026600000,  10.20000,
,,,-00.000026400000,  10.20000,
,,,-00.000026200000,  10.20000,
,,,-00.000026000000,  10.20000,
,,,-00.000025800000,  10.20000,
,,,-00.000025600000,  10.20000,
,,,-00.000025400000,  10.20000,
,,,-00.000025200000,  10.20000,
,,,-00.000025000000,  10.20000,
,,,-00.000024800000,  10.20000,
,,,-00.000024600000,  10.20000,
,,,-00.000024400000,  10.20000,
,,,-00.000024200000,  10.20000,
,,,-00.000024000000,  10.20000,
,,,-00.000023800000,  10.20000,
,,,-00.000023600000,  10.20000,
,,,-00.000023400000,  10.20000,
,,,-00.000023200000,  10.20000,
,,,-00.000023000000,  10.20000,
,,,-00.000022800000,  10.20000,
,,,-00.000022600000,  10.20000,
,,,-00.000022400000,  10.20000,
,,,-00.000022200000,  10.20000,
,,,-00.000022000000,  10.20000,
,,,-00.000021800000,  10.20000,
,,,-00.000021600000,  10.20000,
,,,-00.000021400000,  10.20000,
,,,-00.000021200000,  10.20000,
,,,-00.000021000000,  10.20000,
,,,-00.000020800000,  10.20000,
,,,-00.000020600000,  10.20000,
,,,-00.000020400000,  10.20000,
,,,-00.000020200000,  10.20000,
,,,-00.000020000000,  10.20000,
,,,-00.000019800000,  10.20000,
,,,-00.000019600000,  10.20000,
,,,-00.000019400000,  10.20000,
,,,-00.000019200000,  10.20000,
,,,-00.000019000000,  10.20000,
,,,-00.000018800000,  10.20000,
,,,-00.000018600000,  10.20000,
,,,-00.000018400000,  10.20000,
,,,-00.000018200000,  10.20000,
,,,-00.000018000000,  10.20000,
,,,-00.000017800000,  10.20000,
,,,-00.000017600000,  10.20000,
,,,-00.000017400000,  10.20000,
,,,-00.000017200000,  10.20000,
,,,-00.000017000000,  10.20000,
,,,-00.000016800000,  10.20000,
,,,-00.000016600000,  10.20000,
,,,-00.000016400000,  10.20000,
,,,-00.000016200000,  10.20000,
,,,-00.000016000000,  10.20000,
,,,-00.000015800000,  10.20000,
,,,-00.000015600000,  10.20000,
,,,-00.000015400000,  10.20000,
,,,-00.000015200000,  10.20000,
,,,-00.000015000000,  10.20000,
,,,-00.000014800000,  10.20000,
,,,-00.000014600000,  10.20000,
,,,-00.000014400000,  10.20000,
,,,-00.000014200000,  10.20000,
,,,-00.000014000000,  10.20000,
,,,-00.000013800000,  10.20000,
,,,-00.000013600000,  10.20000,
,,,-00.000013400000,  10.20000,
,,,-00.000013200000,  10.20000,
,,,-00.000013000000,  10.20000,
,,,-00.000012800000,  10.20000,
,,,-00.000012600000,  10.20000,
,,,-00.000012400000,  10.20000,
,,,-00.000012200000,  10.20000,
,,,-00.000012000000,  10.20000,
,,,-00.000011800000,  10.20000,
,,,-00.000011600000,  10.20000,
,,,-00.000011400000,  10.20000,
,,,-00.000011200000,  10.20000,
,,,-00.000011000000,  10.20000,
,,,-00.000010800000,  10.20000,
,,,-00.000010600000,  10.20000,
,,,-00.000010400000,  10.20000,
,,,-00.000010200000,  10.20000,
,,,-00.000010000000,  10.20000,
,,,-00.000009800000,  10.20000,
,,,-00.000009600000,  10.20000,
,,,-00.000009400000,  10.20000,
,,,-00.000009200000,  10.20000,
,,,-00.000009000000,  10.20000,
,,,-00.000008800000,  10.20000,
,,,-00.000008600000,  10.20000,
,,,-00.000008400000,  10.20000,
,,,-00.000008200000,  10.20000,
,,,-00.000008000000,  10.20000,
,,,-00.000007800000,  10.20000,
,,,-00.000007600000,  10.20000,
,,,-00.000007400000,  10.20000,
,,,-00.000007200000,  10.20000,
,,,-00.000007000000,  10.20000,
,,,-00.000006800000,  10.20000,
,,,-00.000006600000,  10.20000,
,,,-00.000006400000,  10.20000,
,,,-00.000006200000,  10.20000,
,,,-00.000006000000,  10.20000,
,,,-00.000005800000,  10.20000,
,,,-00.000005600000,  10.20000,
,,,-00.000005400000,  10.20000,
,,,-00.000005200000,  10.20000,
,,,-00.000005000000,  10.20000,
,,,-00.000004800000,  10.20000,
,,,-00.000004600000,  10.20000,
,,,-00.000004400000,  10.20000,
,,,-00.000004200000,  10.20000,
,,,-00.000004000000,  10.20000,
,,,-00.000003800000,  10.20000,
,,,-00.000003600000,  10.20000,
,,,-00.000003400000,  10.20000,
,,,-00.000003200000,  10.20000,
,,,-00.000003000000,  10.20000,
,,,-00.000002800000,  10.00000,
,,,-00.000002600000,  10.20000,
,,,-00.000002400000,  10.20000,
,,,-00.000002200000,  10.20000,
,,,-00.000002000000,  10.20000,
,,,-00.000001800000,  10.20000,
,,,-00.000001600000,  10.00000,
,,,-00.000001400000,  10.20000,
,,,-00.000001200000,  10.20000,
,,,-00.000001000000,  10.20000,
,,,-00.000000800000,  10.00000,
,,,-00.000000600000,  10.00000,
,,,-00.000000400000,  10.00000,
,,,-00.000000200000,  10.20000,
,,,-00.000000000000,  10.20000,
,,,00.000000200000,  10.20000,
,,,00.000000400000,  10.20000,
,,,00.000000600000,  10.00000,
,,,00.000000800000,  10.20000,
,,,00.000001000000,  10.00000,
,,,00.000001200000,   9.20000,
,,,00.000001400000,  -3.20000,
,,,00.000001600000,  -3.20000,
,,,00.000001800000,  -3.40000,
,,,00.000002000000,  -3.60000,
,,,00.000002200000,  -3.80000,
,,,00.000002400000,  -4.00000,
,,,00.000002600000,  -4.00000,
,,,00.000002800000,  -4.20000,
,,,00.000003000000,  -4.40000,
,,,00.000003200000,  -4.40000,
,,,00.000003400000,  -4.40000,
,,,00.000003600000,  -4.40000,
,,,00.000003800000,  -4.40000,
,,,00.000004000000,  -4.40000,
,,,00.000004200000,  -4.60000,
,,,00.000004400000,  -4.60000,
,,,00.000004600000,  -4.60000,
,,,00.000004800000,  -4.80000,
,,,00.000005000000,  -4.80000,
,,,00.000005200000,  -4.80000,
,,,00.000005400000,  -5.00000,
,,,00.000005600000,  -5.00000,
,,,00.000005800000,  -5.20000,
,,,00.000006000000,  -5.20000,
,,,00.000006200000,  -5.40000,
,,,00.000006400000,  -5.60000,
,,,00.000006600000,  -5.80000,
,,,00.000006800000,  -5.80000,
,,,00.000007000000,  -6.00000,
,,,00.000007200000,  -6.20000,
,,,00.000007400000,  -6.20000,
,,,00.000007600000,  -6.40000,
,,,00.000007800000,  -6.60000,
,,,00.000008000000,  -6.60000,
,,,00.000008200000,  -6.60000,
,,,00.000008400000,  -6.80000,
,,,00.000008600000,  -6.80000,
,,,00.000008800000,  -7.00000,
,,,00.000009000000,  -7.00000,
,,,00.000009200000,  -7.00000,
,,,00.000009400000,  -7.20000,
,,,00.000009600000,  -7.20000,
,,,00.000009800000,  -7.20000,
,,,00.000010000000,  -7.40000,
,,,00.000010200000,  -7.40000,
,,,00.000010400000,  -7.40000,
,,,00.000010600000,  -7.60000,
,,,00.000010800000,  -7.60000,
,,,00.000011000000,  -7.60000,
,,,00.000011200000,  -7.60000,
,,,00.000011400000,  -7.80000,
,,,00.000011600000,  -7.80000,
,,,00.000011800000,  -7.80000,
,,,00.000012000000,  -7.80000,
,,,00.000012200000,  -7.80000,
,,,00.000012400000,  -8.00000,
,,,00.000012600000,  -8.00000,
,,,00.000012800000,  -8.00000,
,,,00.000013000000,  -8.00000,
,,,00.000013200000,  -8.00000,
,,,00.000013400000,  -8.00000,
,,,00.000013600000,  -8.20000,
,,,00.000013800000,  -8.20000,
,,,00.000014000000,  -8.20000,
,,,00.000014200000,  -8.20000,
,,,00.000014400000,  -8.20000,
,,,00.000014600000,  -8.40000,
,,,00.000014800000,  -8.40000,
,,,00.000015000000,  -8.40000,
,,,00.000015200000,  -8.40000,
,,,00.000015400000,  -8.40000,
,,,00.000015600000,  -8.60000,
,,,00.000015800000,  -8.60000,
,,,00.000016000000,  -8.60000,
,,,00.000016200000,  -8.60000,
,,,00.000016400000,  -8.60000,
,,,00.000016600000,  -8.60000,
,,,00.000016800000,  -8.60000,
,,,00.000017000000,  -8.80000,
,,,00.000017200000,  -8.80000,
,,,00.000017400000,  -8.80000,
,,,00.000017600000,  -8.80000,
,,,00.000017800000,  -8.80000,
,,,00.000018000000,  -8.80000,
,,,00.000018200000,  -9.00000,
,,,00.000018400000,  -9.00000,
,,,00.000018600000,  -9.00000,
,,,00.000018800000,  -9.00000,
,,,00.000019000000,  -9.00000,
,,,00.000019200000,  -9.00000,
,,,00.000019400000,  -9.20000,
,,,00.000019600000,  -9.20000,
,,,00.000019800000,  -9.20000,
,,,00.000020000000,  -9.20000,
,,,00.000020200000,  -9.20000,
,,,00.000020400000,  -9.20000,
,,,00.000020600000,  -9.20000,
,,,00.000020800000,  -9.20000,
,,,00.000021000000,  -9.20000,
,,,00.000021200000,  -9.40000,
,,,00.000021400000,  -9.40000,
,,,00.000021600000,  -9.40000,
,,,00.000021800000,  -9.40000,
,,,00.000022000000,  -9.40000,
,,,00.000022200000,  -9.40000,
,,,00.000022400000,  -9.40000,
,,,00.000022600000,  -9.40000,
,,,00.000022800000,  -9.40000,
,,,00.000023000000,  -9.40000,
,,,00.000023200000,  -9.40000,
,,,00.000023400000,  -9.40000,
,,,00.000023600000,  -9.40000,
,,,00.000023800000,  -9.40000,
,,,00.000024000000,  -9.40000,
,,,00.000024200000,  -9.40000,
,,,00.000024400000,  -9.40000,
,,,00.000024600000,  -9.40000,
,,,00.000024800000,  -9.40000,
,,,00.000025000000,  -9.40000,
,,,00.000025200000,  -9.40000,
,,,00.000025400000,  -9.40000,
,,,00.000025600000,  -9.40000,
,,,00.000025800000,  -9.40000,
,,,00.000026000000,  -9.40000,
,,,00.000026200000,  -9.40000,
,,,00.000026400000,  -9.40000,
,,,00.000026600000,  -9.40000,
,,,00.000026800000,  -9.40000,
,,,00.000027000000,  -9.40000,
,,,00.000027200000,  -9.40000,
,,,00.000027400000,  -9.40000,
,,,00.000027600000,  -9.40000,
,,,00.000027800000,  -9.40000,
,,,00.000028000000,  -9.40000,
,,,00.000028200000,  -9.40000,
,,,00.000028400000,  -9.40000,
,,,00.000028600000,  -9.40000,
,,,00.000028800000,  -9.40000,
,,,00.000029000000,  -9.40000,
,,,00.000029200000,  -9.40000,
,,,00.000029400000,  -9.40000,
,,,00.000029600000,  -9.40000,
,,,00.000029800000,  -9.40000,
,,,00.000030000000,  -9.40000,
,,,00.000030200000,  -9.40000,
,,,00.000030400000,  -9.40000,
,,,00.000030600000,  -9.40000,
,,,00.000030800000,  -9.40000,
,,,00.000031000000,  -9.40000,
,,,00.000031200000,  -9.40000,
,,,00.000031400000,  -9.40000,
,,,00.000031600000,  -9.40000,
,,,00.000031800000,  -9.40000,
,,,00.000032000000,  -9.40000,
,,,00.000032200000,  -9.40000,
,,,00.000032400000,  -9.40000,
,,,00.000032600000,  -9.40000,
,,,00.000032800000,  -9.40000,
,,,00.000033000000,  -9.40000,
,,,00.000033200000,  -9.60000,
,,,00.000033400000,  -9.60000,
,,,00.000033600000,  -9.60000,
,,,00.000033800000,  -9.60000,
,,,00.000034000000,  -9.60000,
,,,00.000034200000,  -9.60000,
,,,00.000034400000,  -9.60000,
,,,00.000034600000,  -9.60000,
,,,00.000034800000,  -9.60000,
,,,00.000035000000,  -9.60000,
,,,00.000035200000,  -9.60000,
,,,00.000035400000,  -9.60000,
,,,00.000035600000,  -9.60000,
,,,00.000035800000,  -9.80000,
,,,00.000036000000,  -9.80000,
,,,00.000036200000,  -9.80000,
,,,00.000036400000,  -9.80000,
,,,00.000036600000,  -9.80000,
,,,00.000036800000,  -9.80000,
,,,00.000037000000,  -9.80000,
,,,00.000037200000,  -9.80000,
,,,00.000037400000,  -9.80000,
,,,00.000037600000,  -9.80000,
,,,00.000037800000,  -9.80000,
,,,00.000038000000,  -9.80000,
,,,00.000038200000,  -9.80000,
,,,00.000038400000,  -9.80000,
,,,00.000038600000,  -9.80000,
,,,00.000038800000,  -9.80000,
,,,00.000039000000,  -9.80000,
,,,00.000039200000,  -9.60000,
,,,00.000039400000,  -9.60000,
,,,00.000039600000,  -9.60000,
,,,00.000039800000,  -9.60000,
,,,00.000040000000,  -9.60000,
,,,00.000040200000,  -9.60000,
,,,00.000040400000,  -9.60000,
,,,00.000040600000,  -9.60000,
,,,00.000040800000,  -9.60000,
,,,00.000041000000,  -9.60000,
,,,00.000041200000,  -9.60000,
,,,00.000041400000,  -9.60000,
,,,00.000041600000,  -9.60000,
,,,00.000041800000,  -9.60000,
,,,00.000042000000,  -9.60000,
,,,00.000042200000,  -9.60000,
,,,00.000042400000,  -9.80000,
,,,00.000042600000,  -9.60000,
,,,00.000042800000,  -9.60000,
,,,00.000043000000,  -9.60000,
,,,00.000043200000,  -9.80000,
,,,00.000043400000,  -9.60000,
,,,00.000043600000,  -9.60000,
,,,00.000043800000,  -9.80000,
,,,00.000044000000,  -9.80000,
,,,00.000044200000,  -9.60000,
,,,00.000044400000,  -9.80000,
,,,00.000044600000,  -9.80000,
,,,00.000044800000,  -9.60000,
,,,00.000045000000,  -9.60000,
,,,00.000045200000,  -9.60000,
,,,00.000045400000,  -9.60000,
,,,00.000045600000,  -9.80000,
,,,00.000045800000,  -9.80000,
,,,00.000046000000,  -9.60000,
,,,00.000046200000,  -9.60000,
,,,00.000046400000,  -9.60000,
,,,00.000046600000,  -9.60000,
,,,00.000046800000,  -9.80000,
,,,00.000047000000,  -9.80000,
,,,00.000047200000,  -9.60000,
,,,00.000047400000,  -9.80000,
,,,00.000047600000,  -9.60000,
,,,00.000047800000,  -9.60000,
,,,00.000048000000,  -9.60000,
,,,00.000048200000,  -9.80000,
,,,00.000048400000,  -9.60000,
,,,00.000048600000,  -9.60000,
,,,00.000048800000,  -9.60000,
,,,00.000049000000,  -9.60000,
,,,00.000049200000,  -9.60000,
,,,00.000049400000,  -9.60000,
,,,00.000049600000,  -9.60000,
,,,00.000049800000,  -9.60000,
,,,00.000050000000,  -9.60000,
,,,00.000050200000,  -9.60000,
,,,00.000050400000,  -9.60000,
,,,00.000050600000,  -9.60000,
,,,00.000050800000,  -9.60000,
,,,00.000051000000,  -9.60000,
,,,00.000051200000,  -9.60000,
,,,00.000051400000,  -9.60000,
,,,00.000051600000,  -9.60000,
,,,00.000051800000,  -9.60000,
,,,00.000052000000,  -9.60000,
,,,00.000052200000,  -9.60000,
,,,00.000052400000,  -9.60000,
,,,00.000052600000,  -9.60000,
,,,00.000052800000,  -9.60000,
,,,00.000053000000,  -9.60000,
,,,00.000053200000,  -9.60000,
,,,00.000053400000,  -9.60000,
,,,00.000053600000,  -9.60000,
,,,00.000053800000,  -9.60000,
,,,00.000054000000,  -9.60000,
,,,00.000054200000,  -9.60000,
,,,00.000054400000,  -9.60000,
,,,00.000054600000,  -9.60000,
,,,00.000054800000,  -9.60000,
,,,00.000055000000,  -9.60000,
,,,00.000055200000,  -9.60000,
,,,00.000055400000,  -9.60000,
,,,00.000055600000,  -9.60000,
,,,00.000055800000,  -9.60000,
,,,00.000056000000,  -9.60000,
,,,00.000056200000,  -9.60000,
,,,00.000056400000,  -9.60000,
,,,00.000056600000,  -9.60000,
,,,00.000056800000,  -9.60000,
,,,00.000057000000,  -9.60000,
,,,00.000057200000,  -9.60000,
,,,00.000057400000,  -9.60000,
,,,00.000057600000,  -9.60000,
,,,00.000057800000,  -9.60000,
,,,00.000058000000,  -9.60000,
,,,00.000058200000,  -9.60000,
,,,00.000058400000,  -9.60000,
,,,00.000058600000,  -9.60000,
,,,00.000058800000,  -9.60000,
,,,00.000059000000,  -9.60000,
,,,00.000059200000,  -9.60000,
,,,00.000059400000,  -9.60000,
,,,00.000059600000,  -9.60000,
,,,00.000059800000,  -9.60000,
,,,00.000060000000,  -9.60000,
,,,00.000060200000,  -9.60000,
,,,00.000060400000,  -9.60000,
,,,00.000060600000,  -9.60000,
,,,00.000060800000,  -9.60000,
,,,00.000061000000,  -9.60000,
,,,00.000061200000,  -9.60000,
,,,00.000061400000,  -9.60000,
,,,00.000061600000,  -9.60000,
,,,00.000061800000,  -9.60000,
,,,00.000062000000,  -9.60000,
,,,00.000062200000,  -9.60000,
,,,00.000062400000,  -9.60000,
,,,00.000062600000,  -9.60000,
,,,00.000062800000,  -9.60000,
,,,00.000063000000,  -9.60000,
,,,00.000063200000,  -9.60000,
,,,00.000063400000,  -9.60000,
,,,00.000063600000,  -9.60000,
,,,00.000063800000,  -9.60000,
,,,00.000064000000,  -9.60000,
,,,00.000064200000,  -9.60000,
,,,00.000064400000,  -9.60000,
,,,00.000064600000,  -9.60000,
,,,00.000064800000,  -9.60000,
,,,00.000065000000,  -9.60000,
,,,00.000065200000,  -9.60000,
,,,00.000065400000,  -9.60000,
,,,00.000065600000,  -9.60000,
,,,00.000065800000,  -9.60000,
,,,00.000066000000,  -9.60000,
,,,00.000066200000,  -9.60000,
,,,00.000066400000,  -9.60000,
,,,00.000066600000,  -9.60000,
,,,00.000066800000,  -9.60000,
,,,00.000067000000,  -9.60000,
,,,00.000067200000,  -9.60000,
,,,00.000067400000,  -9.60000,
,,,00.000067600000,  -9.60000,
,,,00.000067800000,  -9.60000,
,,,00.000068000000,  -9.60000,
,,,00.000068200000,  -9.60000,
,,,00.000068400000,  -9.60000,
,,,00.000068600000,  -9.60000,
,,,00.000068800000,  -9.60000,
,,,00.000069000000,  -9.60000,
,,,00.000069200000,  -9.60000,
,,,00.000069400000,  -9.60000,
,,,00.000069600000,  -9.60000,
,,,00.000069800000,  -9.60000,
,,,00.000070000000,  -9.60000,
,,,00.000070200000,  -9.60000,
,,,00.000070400000,  -9.60000,
,,,00.000070600000,  -9.60000,
,,,00.000070800000,  -9.60000,
,,,00.000071000000,  -9.60000,
,,,00.000071200000,  -9.60000,
,,,00.000071400000,  -9.60000,
,,,00.000071600000,  -9.60000,
,,,00.000071800000,  -9.60000,
,,,00.000072000000,  -9.60000,
,,,00.000072200000,  -9.60000,
,,,00.000072400000,  -9.60000,
,,,00.000072600000,  -9.60000,
,,,00.000072800000,  -9.60000,
,,,00.000073000000,  -9.60000,
,,,00.000073200000,  -9.60000,
,,,00.000073400000,  -9.60000,
,,,00.000073600000,  -9.60000,
,,,00.000073800000,  -9.60000,
,,,00.000074000000,  -9.60000,
,,,00.000074200000,  -9.60000,
,,,00.000074400000,  -9.60000,
,,,00.000074600000,  -9.60000,
,,,00.000074800000,  -9.60000,
,,,00.000075000000,  -9.60000,
,,,00.000075200000,  -9.60000,
,,,00.000075400000,  -9.60000,
,,,00.000075600000,  -9.60000,
,,,00.000075800000,  -9.60000,
,,,00.000076000000,  -9.60000,
,,,00.000076200000,  -9.60000,
,,,00.000076400000,  -9.60000,
,,,00.000076600000,  -9.60000,
,,,00.000076800000,  -9.60000,
,,,00.000077000000,  -9.60000,
,,,00.000077200000,  -9.60000,
,,,00.000077400000,  -9.60000,
,,,00.000077600000,  -9.60000,
,,,00.000077800000,  -9.60000,
,,,00.000078000000,  -9.60000,
,,,00.000078200000,  -9.60000,
,,,00.000078400000,  -9.60000,
,,,00.000078600000,  -9.60000,
,,,00.000078800000,  -9.60000,
,,,00.000079000000,  -9.60000,
,,,00.000079200000,  -9.60000,
,,,00.000079400000,  -9.60000,
,,,00.000079600000,  -9.60000,
,,,00.000079800000,  -9.60000,
,,,00.000080000000,  -9.60000,
,,,00.000080200000,  -9.60000,
,,,00.000080400000,  -9.60000,
,,,00.000080600000,  -9.60000,
,,,00.000080800000,  -9.60000,
,,,00.000081000000,  -9.60000,
,,,00.000081200000,  -9.60000,
,,,00.000081400000,  -9.60000,
,,,00.000081600000,  -9.60000,
,,,00.000081800000,  -9.60000,
,,,00.000082000000,  -9.60000,
,,,00.000082200000,  -9.60000,
,,,00.000082400000,  -9.60000,
,,,00.000082600000,  -9.60000,
,,,00.000082800000,  -9.60000,
,,,00.000083000000,  -9.60000,
,,,00.000083200000,  -9.60000,
,,,00.000083400000,  -9.60000,
,,,00.000083600000,  -9.60000,
,,,00.000083800000,  -9.60000,
,,,00.000084000000,  -9.60000,
,,,00.000084200000,  -9.60000,
,,,00.000084400000,  -9.60000,
,,,00.000084600000,  -9.60000,
,,,00.000084800000,  -9.60000,
,,,00.000085000000,  -9.60000,
,,,00.000085200000,  -9.60000,
,,,00.000085400000,  -9.60000,
,,,00.000085600000,  -9.60000,
,,,00.000085800000,  -9.60000,
,,,00.000086000000,  -9.60000,
,,,00.000086200000,  -9.60000,
,,,00.000086400000,  -9.60000,
,,,00.000086600000,  -9.60000,
,,,00.000086800000,  -9.60000,
,,,00.000087000000,  -9.60000,
,,,00.000087200000,  -9.60000,
,,,00.000087400000,  -9.60000,
,,,00.000087600000,  -9.60000,
,,,00.000087800000,  -9.60000,
,,,00.000088000000,  -9.60000,
,,,00.000088200000,  -9.60000,
,,,00.000088400000,  -9.60000,
,,,00.000088600000,  -9.60000,
,,,00.000088800000,  -9.60000,
,,,00.000089000000,  -9.60000,
,,,00.000089200000,  -9.60000,
,,,00.000089400000,  -9.60000,
,,,00.000089600000,  -9.60000,
,,,00.000089800000,  -9.60000,
,,,00.000090000000,  -9.60000,
,,,00.000090200000,  -9.60000,
,,,00.000090400000,  -9.60000,
,,,00.000090600000,  -9.60000,
,,,00.000090800000,  -9.60000,
,,,00.000091000000,  -9.60000,
,,,00.000091200000,  -9.60000,
,,,00.000091400000,  -9.60000,
,,,00.000091600000,  -9.60000,
,,,00.000091800000,  -9.60000,
,,,00.000092000000,  -9.60000,
,,,00.000092200000,  -9.60000,
,,,00.000092400000,  -9.60000,
,,,00.000092600000,  -9.60000,
,,,00.000092800000,  -9.60000,
,,,00.000093000000,  -9.60000,
,,,00.000093200000,  -9.60000,
,,,00.000093400000,  -9.60000,
,,,00.000093600000,  -9.60000,
