switching_data/Switching 20260625a/ALL0005/F0005CH2.CSV

Record Length,2.500000e+03,,  -0.000010800000,  10.20000,
Sample Interval,4.000000e-08,,  -0.000010760000,  10.20000,
Trigger Point,2.700000000000e+02,,  -0.000010720000,  10.20000,
,,,  -0.000010680000,  10.20000,
,,,  -0.000010640000,  10.20000,
,,,  -0.000010600000,  10.20000,
Source,CH2,,  -0.000010560000,  10.20000,
Vertical Units,V,,  -0.000010520000,  10.20000,
Vertical Scale,5.000000e+00,,  -0.000010480000,  10.20000,
Vertical Offset,0.000000e+00,,  -0.000010440000,  10.20000,
Horizontal Units,s,,  -0.000010400000,  10.20000,
Horizontal Scale,1.000000e-05,,  -0.000010360000,  10.20000,
Pt Fmt,Y,,  -0.000010320000,  10.20000,
Yzero,0.000000e+00,,  -0.000010280000,  10.20000,
Probe Atten,1.000000e+00,,  -0.000010240000,  10.20000,
Model Number,TBS1022,,  -0.000010200000,  10.20000,
Serial Number,C012858,,  -0.000010160000,  10.20000,
Firmware Version,FV:v26.01,,  -0.000010120000,  10.20000,
,,,-00.000010080000,  10.20000,
,,,-00.000010040000,  10.20000,
,,,-00.000010000000,  10.20000,
,,,-00.000009960000,  10.20000,
,,,-00.000009920000,  10.20000,
,,,-00.000009880000,  10.20000,
,,,-00.000009840000,  10.20000,
,,,-00.000009800000,  10.20000,
,,,-00.000009760000,  10.20000,
,,,-00.000009720000,  10.20000,
,,,-00.000009680000,  10.20000,
,,,-00.000009640000,  10.20000,
,,,-00.000009600000,  10.20000,
,,,-00.000009560000,  10.20000,
,,,-00.000009520000,  10.20000,
,,,-00.000009480000,  10.20000,
,,,-00.000009440000,  10.20000,
,,,-00.000009400000,  10.20000,
,,,-00.000009360000,  10.20000,
,,,-00.000009320000,  10.20000,
,,,-00.000009280000,  10.20000,
,,,-00.000009240000,  10.20000,
,,,-00.000009200000,  10.20000,
,,,-00.000009160000,  10.20000,
,,,-00.000009120000,  10.20000,
,,,-00.000009080000,  10.20000,
,,,-00.000009040000,  10.20000,
,,,-00.000009000000,  10.20000,
,,,-00.000008960000,  10.20000,
,,,-00.000008920000,  10.20000,
,,,-00.000008880000,  10.20000,
,,,-00.000008840000,  10.20000,
,,,-00.000008800000,  10.20000,
,,,-00.000008760000,  10.20000,
,,,-00.000008720000,  10.20000,
,,,-00.000008680000,  10.20000,
,,,-00.000008640000,  10.20000,
,,,-00.000008600000,  10.20000,
,,,-00.000008560000,  10.20000,
,,,-00.000008520000,  10.20000,
,,,-00.000008480000,  10.20000,
,,,-00.000008440000,  10.20000,
,,,-00.000008400000,  10.20000,
,,,-00.000008360000,  10.20000,
,,,-00.000008320000,  10.20000,
,,,-00.000008280000,  10.20000,
,,,-00.000008240000,  10.20000,
,,,-00.000008200000,  10.20000,
,,,-00.000008160000,  10.20000,
,,,-00.000008120000,  10.20000,
,,,-00.000008080000,  10.20000,
,,,-00.000008040000,  10.20000,
,,,-00.000008000000,  10.20000,
,,,-00.000007960000,  10.20000,
,,,-00.000007920000,  10.20000,
,,,-00.000007880000,  10.20000,
,,,-00.000007840000,  10.20000,
,,,-00.000007800000,  10.20000,
,,,-00.000007760000,  10.20000,
,,,-00.000007720000,  10.20000,
,,,-00.000007680000,  10.20000,
,,,-00.000007640000,  10.20000,
,,,-00.000007600000,  10.20000,
,,,-00.000007560000,  10.20000,
,,,-00.000007520000,  10.20000,
,,,-00.000007480000,  10.20000,
,,,-00.000007440000,  10.20000,
,,,-00.000007400000,  10.20000,
,,,-00.000007360000,  10.20000,
,,,-00.000007320000,  10.20000,
,,,-00.000007280000,  10.20000,
,,,-00.000007240000,  10.20000,
,,,-00.000007200000,  10.20000,
,,,-00.000007160000,  10.20000,
,,,-00.000007120000,  10.20000,
,,,-00.000007080000,  10.20000,
,,,-00.000007040000,  10.20000,
,,,-00.000007000000,  10.20000,
,,,-00.000006960000,  10.20000,
,,,-00.000006920000,  10.20000,
,,,-00.000006880000,  10.20000,
,,,-00.000006840000,  10.20000,
,,,-00.000006800000,  10.20000,
,,,-00.000006760000,  10.20000,
,,,-00.000006720000,  10.20000,
,,,-00.000006680000,  10.20000,
,,,-00.000006640000,  10.20000,
,,,-00.000006600000,  10.20000,
,,,-00.000006560000,  10.20000,
,,,-00.000006520000,  10.20000,
,,,-00.000006480000,  10.20000,
,,,-00.000006440000,  10.20000,
,,,-00.000006400000,  10.20000,
,,,-00.000006360000,  10.20000,
,,,-00.000006320000,  10.20000,
,,,-00.000006280000,  10.20000,
,,,-00.000006240000,  10.20000,
,,,-00.000006200000,  10.20000,
,,,-00.000006160000,  10.20000,
,,,-00.000006120000,  10.20000,
,,,-00.000006080000,  10.20000,
,,,-00.000006040000,  10.20000,
,,,-00.000006000000,  10.20000,
,,,-00.000005960000,  10.20000,
,,,-00.000005920000,  10.20000,
,,,-00.000005880000,  10.20000,
,,,-00.000005840000,  10.20000,
,,,-00.000005800000,  10.20000,
,,,-00.000005760000,  10.20000,
,,,-00.000005720000,  10.20000,
,,,-00.000005680000,  10.20000,
,,,-00.000005640000,  10.20000,
,,,-00.000005600000,  10.20000,
,,,-00.000005560000,  10.20000,
,,,-00.000005520000,  10.20000,
,,,-00.000005480000,  10.20000,
,,,-00.000005440000,  10.20000,
,,,-00.000005400000,  10.20000,
,,,-00.000005360000,  10.20000,
,,,-00.000005320000,  10.20000,
,,,-00.000005280000,  10.20000,
,,,-00.000005240000,  10.20000,
,,,-00.000005200000,  10.20000,
,,,-00.000005160000,  10.20000,
,,,-00.000005120000,  10.20000,
,,,-00.000005080000,  10.20000,
,,,-00.000005040000,  10.20000,
,,,-00.000005000000,  10.20000,
,,,-00.000004960000,  10.20000,
,,,-00.000004920000,  10.20000,
,,,-00.000004880000,  10.20000,
,,,-00.000004840000,  10.20000,
,,,-00.000004800000,  10.20000,
,,,-00.000004760000,  10.20000,
,,,-00.000004720000,  10.20000,
,,,-00.000004680000,  10.20000,
,,,-00.000004640000,  10.20000,
,,,-00.000004600000,  10.20000,
,,,-00.000004560000,  10.20000,
,,,-00.000004520000,  10.20000,
,,,-00.000004480000,  10.20000,
,,,-00.000004440000,  10.20000,
,,,-00.000004400000,  10.20000,
,,,-00.000004360000,  10.20000,
,,,-00.000004320000,  10.20000,
,,,-00.000004280000,  10.20000,
,,,-00.000004240000,  10.20000,
,,,-00.000004200000,  10.20000,
,,,-00.000004160000,  10.20000,
,,,-00.000004120000,  10.20000,
,,,-00.000004080000,  10.20000,
,,,-00.000004040000,  10.20000,
,,,-00.000004000000,  10.20000,
,,,-00.000003960000,  10.20000,
,,,-00.000003920000,  10.20000,
,,,-00.000003880000,  10.20000,
,,,-00.000003840000,  10.20000,
,,,-00.000003800000,  10.20000,
,,,-00.000003760000,  10.20000,
,,,-00.000003720000,  10.20000,
,,,-00.000003680000,  10.20000,
,,,-00.000003640000,  10.20000,
,,,-00.000003600000,  10.20000,
,,,-00.000003560000,  10.20000,
,,,-00.000003520000,  10.20000,
,,,-00.000003480000,  10.20000,
,,,-00.000003440000,  10.20000,
,,,-00.000003400000,  10.20000,
,,,-00.000003360000,  10.20000,
,,,-00.000003320000,  10.20000,
,,,-00.000003280000,  10.20000,
,,,-00.000003240000,  10.20000,
,,,-00.000003200000,  10.20000,
,,,-00.000003160000,  10.20000,
,,,-00.000003120000,  10.20000,
,,,-00.000003080000,  10.20000,
,,,-00.000003040000,  10.20000,
,,,-00.000003000000,  10.20000,
,,,-00.000002960000,  10.20000,
,,,-00.000002920000,  10.20000,
,,,-00.000002880000,  10.20000,
,,,-00.000002840000,  10.20000,
,,,-00.000002800000,  10.20000,
,,,-00.000002760000,  10.20000,
,,,-00.000002720000,  10.20000,
,,,-00.000002680000,  10.20000,
,,,-00.000002640000,  10.20000,
,,,-00.000002600000,  10.20000,
,,,-00.000002560000,  10.20000,
,,,-00.000002520000,  10.20000,
,,,-00.000002480000,  10.20000,
,,,-00.000002440000,  10.20000,
,,,-00.000002400000,  10.20000,
,,,-00.000002360000,  10.20000,
,,,-00.000002320000,  10.20000,
,,,-00.000002280000,  10.20000,
,,,-00.000002240000,  10.20000,
,,,-00.000002200000,  10.20000,
,,,-00.000002160000,  10.20000,
,,,-00.000002120000,  10.20000,
,,,-00.000002080000,  10.20000,
,,,-00.000002040000,  10.20000,
,,,-00.000002000000,  10.20000,
,,,-00.000001960000,  10.20000,
,,,-00.000001920000,  10.20000,
,,,-00.000001880000,  10.20000,
,,,-00.000001840000,  10.20000,
,,,-00.000001800000,  10.20000,
,,,-00.000001760000,  10.20000,
,,,-00.000001720000,  10.20000,
,,,-00.000001680000,  10.20000,
,,,-00.000001640000,  10.20000,
,,,-00.000001600000,  10.20000,
,,,-00.000001560000,  10.20000,
,,,-00.000001520000,  10.20000,
,,,-00.000001480000,  10.20000,
,,,-00.000001440000,  10.20000,
,,,-00.000001400000,  10.20000,
,,,-00.000001360000,  10.20000,
,,,-00.000001320000,  10.20000,
,,,-00.000001280000,  10.20000,
,,,-00.000001240000,  10.20000,
,,,-00.000001200000,  10.20000,
,,,-00.000001160000,  10.20000,
,,,-00.000001120000,  10.20000,
,,,-00.000001080000,  10.20000,
,,,-00.000001040000,  10.20000,
,,,-00.000001000000,  10.20000,
,,,-00.000000960000,  10.20000,
,,,-00.000000920000,  10.20000,
,,,-00.000000880000,  10.20000,
,,,-00.000000840000,  10.20000,
,,,-00.000000800000,  10.20000,
,,,-00.000000760000,  10.20000,
,,,-00.000000720000,  10.20000,
,,,-00.000000680000,  10.20000,
,,,-00.000000640000,  10.20000,
,,,-00.000000600000,  10.20000,
,,,-00.000000560000,  10.20000,
,,,-00.000000520000,  10.20000,
,,,-00.000000480000,  10.20000,
,,,-00.000000440000,  10.20000,
,,,-00.000000400000,  10.20000,
,,,-00.000000360000,  10.20000,
,,,-00.000000320000,  10.20000,
,,,-00.000000280000,  10.20000,
,,,-00.000000240000,  10.20000,
,,,-00.000000200000,  10.20000,
,,,-00.000000160000,  10.20000,
,,,-00.000000120000,  10.20000,
,,,-00.000000080000,  10.20000,
,,,-00.000000040000,  10.20000,
,,,-00.000000000000,  10.20000,
,,,00.000000040000,  10.20000,
,,,00.000000080000,  10.20000,
,,,00.000000120000,  10.20000,
,,,00.000000160000,  10.20000,
,,,00.000000200000,  10.00000,
,,,00.000000240000,   5.00000,
,,,00.000000280000,  -3.60000,
,,,00.000000320000,  -3.00000,
,,,00.000000360000,  -3.00000,
,,,00.000000400000,  -3.20000,
,,,00.000000440000,  -3.20000,
,,,00.000000480000,  -3.20000,
,,,00.000000520000,  -3.20000,
,,,00.000000560000,  -3.20000,
,,,00.000000600000,  -3.20000,
,,,00.000000640000,  -3.40000,
,,,00.000000680000,  -3.40000,
,,,00.000000720000,  -3.40000,
,,,00.000000760000,  -3.40000,
,,,00.000000800000,  -3.40000,
,,,00.000000840000,  -3.40000,
,,,00.000000880000,  -3.60000,
,,,00.000000920000,  -3.60000,
,,,00.000000960000,  -3.60000,
,,,00.000001000000,  -3.60000,
,,,00.000001040000,  -3.60000,
,,,00.000001080000,  -3.60000,
,,,00.000001120000,  -3.60000,
,,,00.000001160000,  -3.80000,
,,,00.000001200000,  -3.80000,
,,,00.000001240000,  -3.80000,
,,,00.000001280000,  -3.80000,
,,,00.000001320000,  -3.80000,
,,,00.000001360000,  -3.80000,
,,,00.000001400000,  -4.00000,
,,,00.000001440000,  -4.00000,
,,,00.000001480000,  -4.00000,
,,,00.000001520000,  -4.00000,
,,,00.000001560000,  -4.00000,
,,,00.000001600000,  -4.00000,
,,,00.000001640000,  -4.00000,
,,,00.000001680000,  -4.20000,
,,,00.000001720000,  -4.20000,
,,,00.000001760000,  -4.20000,
,,,00.000001800000,  -4.20000,
,,,00.000001840000,  -4.20000,
,,,00.000001880000,  -4.20000,
,,,00.000001920000,  -4.40000,
,,,00.000001960000,  -4.40000,
,,,00.000002000000,  -4.40000,
,,,00.000002040000,  -4.40000,
,,,00.000002080000,  -4.40000,
,,,00.000002120000,  -4.40000,
,,,00.000002160000,  -4.40000,
,,,00.000002200000,  -4.40000,
,,,00.000002240000,  -4.40000,
,,,00.000002280000,  -4.40000,
,,,00.000002320000,  -4.40000,
,,,00.000002360000,  -4.40000,
,,,00.000002400000,  -4.40000,
,,,00.000002440000,  -4.40000,
,,,00.000002480000,  -4.40000,
,,,00.000002520000,  -4.40000,
,,,00.000002560000,  -4.40000,
,,,00.000002600000,  -4.40000,
,,,00.000002640000,  -4.40000,
,,,00.000002680000,  -4.40000,
,,,00.000002720000,  -4.40000,
,,,00.000002760000,  -4.40000,
,,,00.000002800000,  -4.40000,
,,,00.000002840000,  -4.40000,
,,,00.000002880000,  -4.40000,
,,,00.000002920000,  -4.40000,
,,,00.000002960000,  -4.40000,
,,,00.000003000000,  -4.40000,
,,,00.000003040000,  -4.40000,
,,,00.000003080000,  -4.60000,
,,,00.000003120000,  -4.60000,
,,,00.000003160000,  -4.60000,
,,,00.000003200000,  -4.60000,
,,,00.000003240000,  -4.60000,
,,,00.000003280000,  -4.60000,
,,,00.000003320000,  -4.60000,
,,,00.000003360000,  -4.60000,
,,,00.000003400000,  -4.60000,
,,,00.000003440000,  -4.60000,
,,,00.000003480000,  -4.60000,
,,,00.000003520000,  -4.60000,
,,,00.000003560000,  -4.60000,
,,,00.000003600000,  -4.60000,
,,,00.000003640000,  -4.60000,
,,,00.000003680000,  -4.60000,
,,,00.000003720000,  -4.60000,
,,,00.000003760000,  -4.60000,
,,,00.000003800000,  -4.60000,
,,,00.000003840000,  -4.60000,
,,,00.000003880000,  -4.80000,
,,,00.000003920000,  -4.80000,
,,,00.000003960000,  -4.80000,
,,,00.000004000000,  -4.80000,
,,,00.000004040000,  -4.80000,
,,,00.000004080000,  -4.80000,
,,,00.000004120000,  -4.80000,
,,,00.000004160000,  -4.80000,
,,,00.000004200000,  -4.80000,
,,,00.000004240000,  -4.80000,
,,,00.000004280000,  -5.00000,
,,,00.000004320000,  -5.00000,
,,,00.000004360000,  -5.00000,
,,,00.000004400000,  -5.00000,
,,,00.000004440000,  -5.00000,
,,,00.000004480000,  -5.00000,
,,,00.000004520000,  -5.00000,
,,,00.000004560000,  -5.00000,
,,,00.000004600000,  -5.00000,
,,,00.000004640000,  -5.00000,
,,,00.000004680000,  -5.00000,
,,,00.000004720000,  -5.20000,
,,,00.000004760000,  -5.20000,
,,,00.000004800000,  -5.20000,
,,,00.000004840000,  -5.20000,
,,,00.000004880000,  -5.20000,
,,,00.000004920000,  -5.20000,
,,,00.000004960000,  -5.20000,
,,,00.000005000000,  -5.20000,
,,,00.000005040000,  -5.40000,
,,,00.000005080000,  -5.40000,
,,,00.000005120000,  -5.40000,
,,,00.000005160000,  -5.40000,
,,,00.000005200000,  -5.40000,
,,,00.000005240000,  -5.40000,
,,,00.000005280000,  -5.60000,
,,,00.000005320000,  -5.60000,
,,,00.000005360000,  -5.60000,
,,,00.000005400000,  -5.60000,
,,,00.000005440000,  -5.60000,
,,,00.000005480000,  -5.60000,
,,,00.000005520000,  -5.60000,
,,,00.000005560000,  -5.60000,
,,,00.000005600000,  -5.80000,
,,,00.000005640000,  -5.80000,
,,,00.000005680000,  -5.80000,
,,,00.000005720000,  -5.80000,
,,,00.000005760000,  -5.80000,
,,,00.000005800000,  -5.80000,
,,,00.000005840000,  -5.80000,
,,,00.000005880000,  -6.00000,
,,,00.000005920000,  -6.00000,
,,,00.000005960000,  -6.00000,
,,,00.000006000000,  -6.00000,
,,,00.000006040000,  -6.00000,
,,,00.000006080000,  -6.00000,
,,,00.000006120000,  -6.00000,
,,,00.000006160000,  -6.20000,
,,,00.000006200000,  -6.00000,
,,,00.000006240000,  -6.20000,
,,,00.000006280000,  -6.20000,
,,,00.000006320000,  -6.20000,
,,,00.000006360000,  -6.20000,
,,,00.000006400000,  -6.20000,
,,,00.000006440000,  -6.20000,
,,,00.000006480000,  -6.20000,
,,,00.000006520000,  -6.40000,
,,,00.000006560000,  -6.40000,
,,,00.000006600000,  -6.40000,
,,,00.000006640000,  -6.40000,
,,,00.000006680000,  -6.40000,
,,,00.000006720000,  -6.40000,
,,,00.000006760000,  -6.40000,
,,,00.000006800000,  -6.40000,
,,,00.000006840000,  -6.60000,
,,,00.000006880000,  -6.60000,
,,,00.000006920000,  -6.60000,
,,,00.000006960000,  -6.60000,
,,,00.000007000000,  -6.60000,
,,,00.000007040000,  -6.60000,
,,,00.000007080000,  -6.60000,
,,,00.000007120000,  -6.60000,
,,,00.000007160000,  -6.60000,
,,,00.000007200000,  -6.60000,
,,,00.000007240000,  -6.60000,
,,,00.000007280000,  -6.80000,
,,,00.000007320000,  -6.80000,
,,,00.000007360000,  -6.80000,
,,,00.000007400000,  -6.80000,
,,,00.000007440000,  -6.80000,
,,,00.000007480000,  -6.80000,
,,,00.000007520000,  -6.80000,
,,,00.000007560000,  -6.80000,
,,,00.000007600000,  -6.80000,
,,,00.000007640000,  -6.80000,
,,,00.000007680000,  -7.00000,
,,,00.000007720000,  -7.00000,
,,,00.000007760000,  -7.00000,
,,,00.000007800000,  -7.00000,
,,,00.000007840000,  -7.00000,
,,,00.000007880000,  -7.00000,
,,,00.000007920000,  -7.00000,
,,,00.000007960000,  -7.00000,
,,,00.000008000000,  -7.00000,
,,,00.000008040000,  -7.00000,
,,,00.000008080000,  -7.00000,
,,,00.000008120000,  -7.00000,
,,,00.000008160000,  -7.00000,
,,,00.000008200000,  -7.20000,
,,,00.000008240000,  -7.20000,
,,,00.000008280000,  -7.20000,
,,,00.000008320000,  -7.20000,
,,,00.000008360000,  -7.20000,
,,,00.000008400000,  -7.20000,
,,,00.000008440000,  -7.20000,
,,,00.000008480000,  -7.20000,
,,,00.000008520000,  -7.20000,
,,,00.000008560000,  -7.20000,
,,,00.000008600000,  -7.20000,
,,,00.000008640000,  -7.20000,
,,,00.000008680000,  -7.20000,
,,,00.000008720000,  -7.40000,
,,,00.000008760000,  -7.20000,
,,,00.000008800000,  -7.40000,
,,,00.000008840000,  -7.40000,
,,,00.000008880000,  -7.40000,
,,,00.000008920000,  -7.40000,
,,,00.000008960000,  -7.40000,
,,,00.000009000000,  -7.40000,
,,,00.000009040000,  -7.40000,
,,,00.000009080000,  -7.40000,
,,,00.000009120000,  -7.40000,
,,,00.000009160000,  -7.40000,
,,,00.000009200000,  -7.40000,
,,,00.000009240000,  -7.40000,
,,,00.000009280000,  -7.40000,
,,,00.000009320000,  -7.40000,
,,,00.000009360000,  -7.40000,
,,,00.000009400000,  -7.40000,
,,,00.000009440000,  -7.40000,
,,,00.000009480000,  -7.60000,
,,,00.000009520000,  -7.60000,
,,,00.000009560000,  -7.60000,
,,,00.000009600000,  -7.60000,
,,,00.000009640000,  -7.60000,
,,,00.000009680000,  -7.60000,
,,,00.000009720000,  -7.60000,
,,,00.000009760000,  -7.60000,
,,,00.000009800000,  -7.60000,
,,,00.000009840000,  -7.60000,
,,,00.000009880000,  -7.60000,
,,,00.000009920000,  -7.60000,
,,,00.000009960000,  -7.60000,
,,,00.000010000000,  -7.60000,
,,,00.000010040000,  -7.60000,
,,,00.000010080000,  -7.60000,
,,,00.000010120000,  -7.60000,
,,,00.000010160000,  -7.60000,
,,,00.000010200000,  -7.60000,
,,,00.000010240000,  -7.60000,
,,,00.000010280000,  -7.60000,
,,,00.000010320000,  -7.80000,
,,,00.000010360000,  -7.80000,
,,,00.000010400000,  -7.80000,
,,,00.000010440000,  -7.80000,
,,,00.000010480000,  -7.80000,
,,,00.000010520000,  -7.80000,
,,,00.000010560000,  -7.80000,
,,,00.000010600000,  -7.80000,
,,,00.000010640000,  -7.80000,
,,,00.000010680000,  -7.80000,
,,,00.000010720000,  -7.80000,
,,,00.000010760000,  -7.80000,
,,,00.000010800000,  -7.80000,
,,,00.000010840000,  -7.80000,
,,,00.000010880000,  -7.80000,
,,,00.000010920000,  -7.80000,
,,,00.000010960000,  -7.80000,
,,,00.000011000000,  -7.80000,
,,,00.000011040000,  -7.80000,
,,,00.000011080000,  -7.80000,
,,,00.000011120000,  -7.80000,
,,,00.000011160000,  -7.80000,
,,,00.000011200000,  -7.80000,
,,,00.000011240000,  -7.80000,
,,,00.000011280000,  -7.80000,
,,,00.000011320000,  -7.80000,
,,,00.000011360000,  -8.00000,
,,,00.000011400000,  -8.00000,
,,,00.000011440000,  -8.00000,
,,,00.000011480000,  -8.00000,
,,,00.000011520000,  -8.00000,
,,,00.000011560000,  -8.00000,
,,,00.000011600000,  -8.00000,
,,,00.000011640000,  -8.00000,
,,,00.000011680000,  -8.00000,
,,,00.000011720000,  -8.00000,
,,,00.000011760000,  -8.00000,
,,,00.000011800000,  -8.00000,
,,,00.000011840000,  -8.00000,
,,,00.000011880000,  -8.00000,
,,,00.000011920000,  -8.00000,
,,,00.000011960000,  -8.00000,
,,,00.000012000000,  -8.00000,
,,,00.000012040000,  -8.00000,
,,,00.000012080000,  -8.00000,
,,,00.000012120000,  -8.00000,
,,,00.000012160000,  -8.00000,
,,,00.000012200000,  -8.00000,
,,,00.000012240000,  -8.00000,
,,,00.000012280000,  -8.00000,
,,,00.000012320000,  -8.20000,
,,,00.000012360000,  -8.00000,
,,,00.000012400000,  -8.20000,
,,,00.000012440000,  -8.20000,
,,,00.000012480000,  -8.20000,
,,,00.000012520000,  -8.20000,
,,,00.000012560000,  -8.20000,
,,,00.000012600000,  -8.20000,
,,,00.000012640000,  -8.20000,
,,,00.000012680000,  -8.20000,
,,,00.000012720000,  -8.20000,
,,,00.000012760000,  -8.20000,
,,,00.000012800000,  -8.20000,
,,,00.000012840000,  -8.20000,
,,,00.000012880000,  -8.20000,
,,,00.000012920000,  -8.20000,
,,,00.000012960000,  -8.20000,
,,,00.000013000000,  -8.20000,
,,,00.000013040000,  -8.20000,
,,,00.000013080000,  -8.20000,
,,,00.000013120000,  -8.20000,
,,,00.000013160000,  -8.20000,
,,,00.000013200000,  -8.20000,
,,,00.000013240000,  -8.20000,
,,,00.000013280000,  -8.20000,
,,,00.000013320000,  -8.20000,
,,,00.000013360000,  -8.20000,
,,,00.000013400000,  -8.20000,
,,,00.000013440000,  -8.40000,
,,,00.000013480000,  -8.40000,
,,,00.000013520000,  -8.20000,
,,,00.000013560000,  -8.40000,
,,,00.000013600000,  -8.40000,
,,,00.000013640000,  -8.40000,
,,,00.000013680000,  -8.40000,
,,,00.000013720000,  -8.40000,
,,,00.000013760000,  -8.40000,
,,,00.000013800000,  -8.40000,
,,,00.000013840000,  -8.40000,
,,,00.000013880000,  -8.40000,
,,,00.000013920000,  -8.40000,
,,,00.000013960000,  -8.40000,
,,,00.000014000000,  -8.40000,
,,,00.000014040000,  -8.40000,
,,,00.000014080000,  -8.40000,
,,,00.000014120000,  -8.40000,
,,,00.000014160000,  -8.40000,
